{
	"iplugin": {
		"interfaces": [
			"IPlugin/1.0"
			, "IMusicPlayer/1.0"
		],
		"references": {
			"IMusicPlayerTrackDataExtention/1.0": 1,
			"IMusicPlayerTrackProgressDataExtention/1.0": 1
		},
		"info": {
			"name": "MusicPlayer",
			"about": "Music player backend"
		}
	}
}
